<svg width="18" height="18" viewBox="0 0 18 18" fill="none" xmlns="http://www.w3.org/2000/svg">
<path d="M11.5 5C11.3674 5 11.2402 4.94732 11.1464 4.85355C11.0527 4.75979 11 4.63261 11 4.5C11 4.36739 11.0527 4.24021 11.1464 4.14645C11.2402 4.05268 11.3674 4 11.5 4H14.5C14.6326 4 14.7598 4.05268 14.8536 4.14645C14.9473 4.24021 15 4.36739 15 4.5C15 4.63261 14.9473 4.75979 14.8536 4.85355C14.7598 4.94732 14.6326 5 14.5 5H11.5ZM11.5 8C11.3674 8 11.2402 7.94732 11.1464 7.85355C11.0527 7.75979 11 7.63261 11 7.5C11 7.36739 11.0527 7.24021 11.1464 7.14645C11.2402 7.05268 11.3674 7 11.5 7H14.5C14.6326 7 14.7598 7.05268 14.8536 7.14645C14.9473 7.24021 15 7.36739 15 7.5C15 7.63261 14.9473 7.75979 14.8536 7.85355C14.7598 7.94732 14.6326 8 14.5 8H11.5ZM11.5 11C11.3674 11 11.2402 10.9473 11.1464 10.8536C11.0527 10.7598 11 10.6326 11 10.5C11 10.3674 11.0527 10.2402 11.1464 10.1464C11.2402 10.0527 11.3674 10 11.5 10H14.5C14.6326 10 14.7598 10.0527 14.8536 10.1464C14.9473 10.2402 15 10.3674 15 10.5C15 10.6326 14.9473 10.7598 14.8536 10.8536C14.7598 10.9473 14.6326 11 14.5 11H11.5ZM11.5 14C11.3674 14 11.2402 13.9473 11.1464 13.8536C11.0527 13.7598 11 13.6326 11 13.5C11 13.3674 11.0527 13.2402 11.1464 13.1464C11.2402 13.0527 11.3674 13 11.5 13H14.5C14.6326 13 14.7598 13.0527 14.8536 13.1464C14.9473 13.2402 15 13.3674 15 13.5C15 13.6326 14.9473 13.7598 14.8536 13.8536C14.7598 13.9473 14.6326 14 14.5 14H11.5Z" fill="#333333"/>
<path d="M3 2C2.73478 2 2.48043 2.10536 2.29289 2.29289C2.10536 2.48043 2 2.73478 2 3V15C2 15.2652 2.10536 15.5196 2.29289 15.7071C2.48043 15.8946 2.73478 16 3 16H15C15.2652 16 15.5196 15.8946 15.7071 15.7071C15.8946 15.5196 16 15.2652 16 15V3C16 2.73478 15.8946 2.48043 15.7071 2.29289C15.5196 2.10536 15.2652 2 15 2H3ZM3 1H15C15.5304 1 16.0391 1.21071 16.4142 1.58579C16.7893 1.96086 17 2.46957 17 3V15C17 15.5304 16.7893 16.0391 16.4142 16.4142C16.0391 16.7893 15.5304 17 15 17H3C2.46957 17 1.96086 16.7893 1.58579 16.4142C1.21071 16.0391 1 15.5304 1 15V3C1 2.46957 1.21071 1.96086 1.58579 1.58579C1.96086 1.21071 2.46957 1 3 1V1Z" fill="#333333"/>
<path d="M6.07847 14C5.52722 14 4.99856 13.761 4.60877 13.3355C4.21898 12.91 4 12.3329 4 11.7312C4 11.1295 4.21898 10.5524 4.60877 10.127C4.99856 9.70149 5.52722 9.46246 6.07847 9.46246C6.62971 9.46246 7.15837 9.70149 7.54816 10.127C7.93795 10.5524 8.15693 11.1295 8.15693 11.7312C8.15693 12.3329 7.93795 12.91 7.54816 13.3355C7.15837 13.761 6.62971 14 6.07847 14ZM6.07847 13.0925C6.24223 13.0925 6.4044 13.0573 6.5557 12.9889C6.707 12.9205 6.84448 12.8202 6.96028 12.6938C7.07609 12.5674 7.16794 12.4173 7.23062 12.2522C7.29329 12.087 7.32554 11.91 7.32554 11.7312C7.32554 11.5525 7.29329 11.3755 7.23062 11.2103C7.16794 11.0451 7.07609 10.8951 6.96028 10.7687C6.84448 10.6423 6.707 10.542 6.5557 10.4736C6.4044 10.4052 6.24223 10.37 6.07847 10.37C5.74772 10.37 5.43052 10.5134 5.19665 10.7687C4.96277 11.024 4.83139 11.3702 4.83139 11.7312C4.83139 12.0923 4.96277 12.4385 5.19665 12.6938C5.43052 12.9491 5.74772 13.0925 6.07847 13.0925ZM4.09561 6.12465C4.02625 6.03187 3.9933 5.91292 4.00395 5.79373C4.0146 5.67454 4.06798 5.56478 4.15246 5.48837C4.23694 5.41197 4.34566 5.37511 4.45493 5.38585C4.5642 5.39658 4.66515 5.45402 4.73578 5.54566L5.77584 6.916C5.81621 6.96923 5.86718 7.01169 5.92486 7.04015C5.98255 7.06861 6.04543 7.08231 6.1087 7.08021C6.17198 7.07811 6.23398 7.06026 6.28997 7.02803C6.34597 6.9958 6.39448 6.95003 6.4318 6.89422L8.23758 4.20346C8.26861 4.15224 8.30884 4.10843 8.35583 4.07468C8.40283 4.04093 8.45561 4.01794 8.51099 4.00711C8.56636 3.99628 8.62317 3.99783 8.67798 4.01167C8.73279 4.02551 8.78445 4.05134 8.82984 4.08761C8.87524 4.12388 8.91341 4.16983 8.94206 4.22268C8.97071 4.27553 8.98923 4.33417 8.99651 4.39506C9.00378 4.45595 8.99966 4.51782 8.98439 4.57692C8.96912 4.63602 8.94302 4.69112 8.90767 4.73889L7.10273 7.43056C6.99059 7.59754 6.84504 7.73441 6.67714 7.83073C6.50924 7.92706 6.32343 7.98031 6.13383 7.98644C5.94424 7.99256 5.75586 7.9514 5.58304 7.86608C5.41021 7.78076 5.25749 7.65354 5.1365 7.49408L4.09561 6.12375V6.12465Z" fill="#EB5757"/>
</svg>
