<svg width="42" height="46" viewBox="0 0 42 46" fill="none" xmlns="http://www.w3.org/2000/svg">
<g filter="url(#filter0_d)">
<path d="M37.3754 11.5L21.7454 2.5C21.489 2.35019 21.1974 2.27124 20.9004 2.27124C20.6034 2.27124 20.3118 2.35019 20.0554 2.5L4.42541 11.5C4.16343 11.6518 3.94688 11.8709 3.79828 12.1347C3.64968 12.3985 3.57445 12.6973 3.58041 13V31.05C3.58327 31.3442 3.66269 31.6327 3.81085 31.8869C3.95902 32.1412 4.17081 32.3525 4.42541 32.5L20.0554 41.5C20.3118 41.6498 20.6034 41.7288 20.9004 41.7288C21.1974 41.7288 21.489 41.6498 21.7454 41.5L37.3754 32.5C37.6315 32.3504 37.8442 32.1366 37.9924 31.8797C38.1405 31.6227 38.2191 31.3316 38.2204 31.035V13C38.2253 12.6975 38.1496 12.3991 38.0011 12.1355C37.8526 11.8719 37.6367 11.6526 37.3754 11.5ZM31.3154 15.37L19.1604 30.795C19.1107 30.859 19.047 30.9108 18.9742 30.9463C18.9014 30.9818 18.8214 31.0002 18.7404 31H15.0404C14.8972 31 14.7598 30.9431 14.6586 30.8418C14.5573 30.7406 14.5004 30.6032 14.5004 30.46V16L14.0604 15.335C14.0061 15.2548 13.9745 15.1613 13.9692 15.0645C13.9638 14.9677 13.9849 14.8713 14.0301 14.7856C14.0752 14.6998 14.1429 14.628 14.2257 14.5777C14.3085 14.5274 14.4035 14.5005 14.5004 14.5H18.2054C18.3486 14.5 18.486 14.5569 18.5872 14.6582C18.6885 14.7594 18.7454 14.8968 18.7454 15.04V21.75L24.8404 14.685C24.8909 14.6271 24.9531 14.5807 25.0229 14.5488C25.0928 14.5169 25.1686 14.5003 25.2454 14.5H30.8904C30.9911 14.5005 31.0897 14.5291 31.175 14.5826C31.2603 14.6361 31.329 14.7125 31.3732 14.803C31.4174 14.8935 31.4354 14.9945 31.4252 15.0947C31.415 15.1949 31.377 15.2903 31.3154 15.37Z" fill="#976F4D"/>
</g>
<defs>
<filter id="filter0_d" x="-2" y="0" width="46" height="46" filterUnits="userSpaceOnUse" color-interpolation-filters="sRGB">
<feFlood flood-opacity="0" result="BackgroundImageFix"/>
<feColorMatrix in="SourceAlpha" type="matrix" values="0 0 0 0 0 0 0 0 0 0 0 0 0 0 0 0 0 0 127 0"/>
<feOffset dy="1"/>
<feGaussianBlur stdDeviation="1.5"/>
<feColorMatrix type="matrix" values="0 0 0 0 0.945098 0 0 0 0 0.796078 0 0 0 0 0.654902 0 0 0 1 0"/>
<feBlend mode="normal" in2="BackgroundImageFix" result="effect1_dropShadow"/>
<feBlend mode="normal" in="SourceGraphic" in2="effect1_dropShadow" result="shape"/>
</filter>
</defs>
</svg>
