<!-- Generator: Adobe Illustrator 22.0.1, SVG Export Plug-In  -->
<svg version="1.1"
	 xmlns="http://www.w3.org/2000/svg" xmlns:xlink="http://www.w3.org/1999/xlink" xmlns:a="http://ns.adobe.com/AdobeSVGViewerExtensions/3.0/"
	 x="0px" y="0px" width="82px" height="82px" viewBox="0 0 82 82" style="enable-background:new 0 0 82 82;" xml:space="preserve">
<style type="text/css">
	.st0{fill:none;stroke:#999999;stroke-width:2;stroke-miterlimit:10;}
</style>
<defs>
</defs>
<path class="st0" d="M61,55.6c-4-2.5-17-7.7-6.7-19.1c6.5-7.2,3.8-14.2,3.8-14.2C59.3,1,41,1,41,1S21,0.3,23.9,22.3
	c0,0-1.8,9.2,3.8,14.3c11.8,10.7-2.7,16.5-6.7,19c-4,2.5-20,9.4-20,19V81h80v-6.3C80.6,65.7,65,58.1,61,55.6L61,55.6z M61,55.6"/>
</svg>
